Getting Started With care4cmodel
…
The other remaining list element sim_growth_and_yield is
a named list of data frames that contain growth and yield information
which was, in essence, obtained by upscaling the growth and yield
information provided in the silvicultural concept definition (Section 3.1). We obtain an
overview with:

sim_base_out$sim_growth_and_yield
#> $gyield_summary
#> # A tibble: 201 × 8
#>     time vol_standing vol_rmv_cont vol_rmv_damage vol_rmv_total vol_mort
#>    <dbl>        <dbl>        <dbl>          <dbl>         <dbl>    <dbl>
#>  1     0           0        0              NA            0          0   
#>  2     1        3903.       0.0393          0            0.0393     9.50
#>  3     2        7833.       0.555           0.545        1.10      19.4 
#>  4     3       11846.       2.48            2.97         5.45      30.6 
#>  5     4       16007.       6.92            5.41        12.3       44.0 
#>  6     5       20382.      15.0             3.04        18.0       60.6 
#>  7     6       25019.      27.5             3.21        30.7       81.2 
#>  8     7       29871.      44.9            79.2        124.       106.  
#>  9     8       35010.      67.7            98.0        166.       136.  
#> 10     9       40498.      96.3            59.3        156.       170.  
#> # ℹ 191 more rows
#> # ℹ 2 more variables: vol_inc_ups <dbl>, vol_inc <dbl>
#> 
#> $gyield_phases
#> $gyield_phases$vol_standing
#> # A tibble: 201 × 7
#>     time initial_stand young_growth immature_timber mature_timber
#>    <dbl>         <dbl>        <dbl>           <dbl>         <dbl>
#>  1     0             0           0             0    0            
#>  2     1             0        3898.            4.96 0.00000000446
#>  3     2             0        7764.           69.9  0.00000387   
#>  4     3             0       11534.          312.   0.000187     
#>  5     4             0       15135.          872.   0.00280      
#>  6     5             0       18498.         1884.   0.0220       
#>  7     6             0       21558.         3461.   0.115        
#>  8     7             0       24213.         5658.   0.451        
#>  9     8             0       26477.         8531.   1.44         
#> 10     9             0       28367.        12127.   3.95         
#> # ℹ 191 more rows
#> # ℹ 2 more variables: final_harvest_phase_I <dbl>, final_harvest_phase_II <dbl>
#> 
#> $gyield_phases$vol_rmv_cont
#> # A tibble: 201 × 7
#>     time initial_stand young_growth immature_timber mature_timber
#>    <dbl>         <dbl>        <dbl>           <dbl>         <dbl>
#>  1     0             0            0          0           0       
#>  2     1             0            0          0.0393      5.23e-11
#>  3     2             0            0          0.555       4.54e- 8
#>  4     3             0            0          2.48        2.20e- 6
#>  5     4             0            0          6.92        3.29e- 5
#>  6     5             0            0         15.0         2.58e- 4
#>  7     6             0            0         27.5         1.35e- 3
#>  8     7             0            0         44.9         5.29e- 3
#>  9     8             0            0         67.7         1.69e- 2
#> 10     9             0            0         96.3         4.62e- 2
#> # ℹ 191 more rows
#> # ℹ 2 more variables: final_harvest_phase_I <dbl>, final_harvest_phase_II <dbl>
#> 
#> $gyield_phases$vol_rmv_damage
#> # A tibble: 201 × 7
#>     time initial_stand young_growth immature_timber mature_timber
#>    <dbl>         <dbl>        <dbl>           <dbl>         <dbl>
#>  1     0            NA       NA            NA           NA       
#>  2     1             0        0             0            0       
#>  3     2             0        0.543         0.00186      4.22e-12
#>  4     3             0        2.90          0.0702       9.81e- 9
#>  5     4             0        5.04          0.367        5.55e- 7
#>  6     5             0        2.63          0.408        3.31e- 6
#>  7     6             0        2.52          0.689        2.04e- 5
#>  8     7             0       55.3          23.8          1.99e- 3
#>  9     8             0       60.2          37.8          7.56e- 3
#> 10     9             0       31.8          27.5          1.17e- 2
#> # ℹ 191 more rows
#> # ℹ 2 more variables: final_harvest_phase_I <dbl>, final_harvest_phase_II <dbl>
#> 
#> $gyield_phases$vol_rmv_total
#> # A tibble: 201 × 7
#>     time initial_stand young_growth immature_timber mature_timber
#>    <dbl>         <dbl>        <dbl>           <dbl>         <dbl>
#>  1     0             0        0              0           0       
#>  2     1             0        0              0.0393      5.23e-11
#>  3     2             0        0.543          0.557       4.54e- 8
#>  4     3             0        2.90           2.55        2.21e- 6
#>  5     4             0        5.04           7.29        3.34e- 5
#>  6     5             0        2.63          15.4         2.62e- 4
#>  7     6             0        2.52          28.2         1.37e- 3
#>  8     7             0       55.3           68.8         7.28e- 3
#>  9     8             0       60.2          106.          2.44e- 2
#> 10     9             0       31.8          124.          5.79e- 2
#> # ℹ 191 more rows
#> # ℹ 2 more variables: final_harvest_phase_I <dbl>, final_harvest_phase_II <dbl>
#> 
#> $gyield_phases$vol_mort
#> # A tibble: 201 × 7
#>     time initial_stand young_growth immature_timber mature_timber
#>    <dbl>         <dbl>        <dbl>           <dbl>         <dbl>
#>  1     0             0         0             0           0       
#>  2     1             0         9.46          0.0414      1.91e-11
#>  3     2             0        18.8           0.584       1.65e- 8
#>  4     3             0        28.0           2.61        8.01e- 7
#>  5     4             0        36.7           7.28        1.20e- 5
#>  6     5             0        44.9          15.7         9.42e- 5
#>  7     6             0        52.3          28.9         4.93e- 4
#>  8     7             0        58.8          47.3         1.93e- 3
#>  9     8             0        64.3          71.3         6.15e- 3
#> 10     9             0        68.8         101.          1.68e- 2
#> # ℹ 191 more rows
#> # ℹ 2 more variables: final_harvest_phase_I <dbl>, final_harvest_phase_II <dbl>
#> 
#> $gyield_phases$vol_inc_ups
#> # A tibble: 201 × 7
#>     time initial_stand young_growth immature_timber mature_timber
#>    <dbl>         <dbl>        <dbl>           <dbl>         <dbl>
#>  1     0         3901.           0            0          0       
#>  2     1         3641.         711.           0.220      8.91e-11
#>  3     2         3382.        1417.           3.10       7.73e- 8
#>  4     3         3126.        2105.          13.8        3.74e- 6
#>  5     4         2875.        2762.          38.6        5.60e- 5
#>  6     5         2632.        3376.          83.5        4.40e- 4
#>  7     6         2398.        3934.         153.         2.30e- 3
#>  8     7         2180.        4419.         251.         9.01e- 3
#>  9     8         1974.        4832.         378.         2.87e- 2
#> 10     9         1780.        5177.         538.         7.88e- 2
#> # ℹ 191 more rows
#> # ℹ 2 more variables: final_harvest_phase_I <dbl>, final_harvest_phase_II <dbl>
#> 
#> 
#> $gyield_harvest_detail
#> # A tibble: 2,412 × 8
#> # Groups:   time, phase_no, phase_name, harvest_type, dbh_cm, vol_tree_m3
#> #   [2,412]
#>     time harvest_type phase_no phase_name  dbh_cm vol_tree_m3 tree_dist_m volume
#>    <dbl> <chr>           <int> <chr>        <dbl>       <dbl>       <dbl>  <dbl>
#>  1     0 damage              1 initial_st…    0          0           1.2       0
#>  2     0 regular             1 initial_st…    0          0           0         0
#>  3     0 damage              2 young_grow…    5.8        0.01        1.27      0
#>  4     0 regular             2 young_grow…    0          0           0         0
#>  5     0 damage              3 immature_t…   10.3        0.05        1.55      0
#>  6     0 regular             3 immature_t…   12.9        0.09       10.7       0
#>  7     0 damage              4 mature_tim…   22.9        0.39        3.21      0
#>  8     0 regular             4 mature_tim…   25.8        0.58       11.5       0
#>  9     0 damage              5 final_harv…   30.2        0.88        4.43      0
#> 10     0 regular             5 final_harv…   41.9        1.08       15.7       0
#> # ℹ 2,402 more rows
…
Similar as for the base simulation results described in Section 3.3, the first six list
elements document the settings used for the calculations. The three
remaining items, co2_agg_high, co2_agg_medium,
co2_by_phases are all data frames that contain the actual
outcomes, each on a different level of aggregation. We show them below,
but note, that depending on your machine, some columns will be probably
cut off and only mentioned under more variables underneath the
data frame. The variable names should be self-explaining, note that for
all operations we provide both, the fuel consumption and the
CO2 emissions.

carbon_out$co2_agg_high
#> # A tibble: 201 × 10
#>     time fuel_cutting_total_l fuel_moving_total_l fuel_road_maint_total_l
#>    <dbl>                <dbl>               <dbl>                   <dbl>
#>  1     0                0                  0                         8750
#>  2     1                0.117              0.0174                    8750
#>  3     2                7.79               0.487                     8750
#>  4     3               40.4                2.42                      8750
#>  5     4               78.6                5.47                      8750
#>  6     5               75.3                7.98                      8750
#>  7     6              112.                13.6                       8750
#>  8     7              825.                55.0                       8750
#>  9     8              987.                73.5                       8750
#> 10     9              722.                69.0                       8750
#> # ℹ 191 more rows
#> # ℹ 6 more variables: co2_cutting_total_kg <dbl>, co2_moving_total_kg <dbl>,
#> #   co2_road_maint_total_kg <dbl>, co2_equiv_harvest_kg <dbl>,
#> #   co2_equiv_inc_kg <dbl>, co2_equiv_standing_kg <dbl>
carbon_out$co2_agg_medium
#> # A tibble: 402 × 7
#> # Groups:   time [201]
#>     time harvest_type fuel_cutting_total_l fuel_moving_total_l
#>    <dbl> <chr>                       <dbl>               <dbl>
#>  1     0 damage                      0                  0     
#>  2     0 regular                     0                  0     
#>  3     1 damage                      0                  0     
#>  4     1 regular                     0.117              0.0174
#>  5     2 damage                      6.14               0.241 
#>  6     2 regular                     1.65               0.246 
#>  7     3 damage                     33.0                1.32  
#>  8     3 regular                     7.37               1.10  
#>  9     4 damage                     58.0                2.40  
#> 10     4 regular                    20.6                3.07  
#> # ℹ 392 more rows
#> # ℹ 3 more variables: co2_cutting_total_kg <dbl>, co2_moving_total_kg <dbl>,
#> #   co2_equiv_harvest_kg <dbl>
carbon_out$co2_by_phases
#> # A tibble: 2,412 × 11
#>     time harvest_type phase_no phase_name            fuel_cutting_l_per_m3
#>    <dbl> <chr>           <int> <chr>                                 <dbl>
#>  1     0 damage              1 initial_stand                         0    
#>  2     0 regular             1 initial_stand                         0    
#>  3     0 damage              2 young_growth                         11.3  
#>  4     0 regular             2 young_growth                          0    
#>  5     0 damage              3 immature_timber                       2.79 
#>  6     0 regular             3 immature_timber                       2.97 
#>  7     0 damage              4 mature_timber                         0.813
#>  8     0 regular             4 mature_timber                         0.674
#>  9     0 damage              5 final_harvest_phase_I                 0.571
#> 10     0 regular             5 final_harvest_phase_I                 0.531
#> # ℹ 2,402 more rows
#> # ℹ 6 more variables: fuel_cutting_total_l <dbl>, co2_cutting_total_kg <dbl>,
#> #   fuel_moving_l_per_m3 <dbl>, fuel_moving_total_l <dbl>,
#> #   co2_moving_total_kg <dbl>, co2_equiv_harvest_kg <dbl>
…
